freqencydependence/ALL0006/F0006CH1.CSV

Record Length,2.500000e+03,,  -0.000001250000,   2.16000,
Sample Interval,1.000000e-09,,  -0.000001249000,   2.08000,
Trigger Point,1.250000000000e+03,,  -0.000001248000,   2.24000,
,,,  -0.000001247000,   2.24000,
,,,  -0.000001246000,   2.16000,
,,,  -0.000001245000,   2.16000,
Source,CH1,,  -0.000001244000,   2.32000,
Vertical Units,V,,  -0.000001243000,   2.16000,
Vertical Scale,2.000000e+00,,  -0.000001242000,   2.32000,
Vertical Offset,4.000000e+00,,  -0.000001241000,   2.24000,
Horizontal Units,s,,  -0.000001240000,   2.16000,
Horizontal Scale,2.500000e-07,,  -0.000001239000,   2.24000,
Pt Fmt,Y,,  -0.000001238000,   2.24000,
Yzero,0.000000e+00,,  -0.000001237000,   2.24000,
Probe Atten,1.000000e+01,,  -0.000001236000,   2.16000,
Model Number,TBS1022,,  -0.000001235000,   2.24000,
Serial Number,C030628,,  -0.000001234000,   2.16000,
Firmware Version,FV:v26.02,,  -0.000001233000,   2.16000,
,,,-00.000001232000,   2.16000,
,,,-00.000001231000,   2.16000,
,,,-00.000001230000,   2.24000,
,,,-00.000001229000,   2.16000,
,,,-00.000001228000,   2.08000,
,,,-00.000001227000,   2.16000,
,,,-00.000001226000,   2.08000,
,,,-00.000001225000,   2.24000,
,,,-00.000001224000,   2.08000,
,,,-00.000001223000,   2.08000,
,,,-00.000001222000,   2.08000,
,,,-00.000001221000,   2.00000,
,,,-00.000001220000,   2.08000,
,,,-00.000001219000,   2.00000,
,,,-00.000001218000,   2.00000,
,,,-00.000001217000,   2.16000,
,,,-00.000001216000,   2.00000,
,,,-00.000001215000,   2.08000,
,,,-00.000001214000,   2.00000,
,,,-00.000001213000,   2.08000,
,,,-00.000001212000,   2.08000,
,,,-00.000001211000,   2.08000,
,,,-00.000001210000,   2.00000,
,,,-00.000001209000,   2.00000,
,,,-00.000001208000,   2.08000,
,,,-00.000001207000,   2.00000,
,,,-00.000001206000,   1.92000,
,,,-00.000001205000,   2.00000,
,,,-00.000001204000,   1.92000,
,,,-00.000001203000,   2.00000,
,,,-00.000001202000,   1.92000,
,,,-00.000001201000,   1.92000,
,,,-00.000001200000,   1.84000,
,,,-00.000001199000,   1.84000,
,,,-00.000001198000,   1.92000,
,,,-00.000001197000,   1.92000,
,,,-00.000001196000,   1.84000,
,,,-00.000001195000,   1.84000,
,,,-00.000001194000,   1.84000,
,,,-00.000001193000,   1.84000,
,,,-00.000001192000,   1.76000,
,,,-00.000001191000,   1.84000,
,,,-00.000001190000,   1.76000,
,,,-00.000001189000,   1.68000,
,,,-00.000001188000,   1.60000,
,,,-00.000001187000,   1.76000,
,,,-00.000001186000,   1.60000,
,,,-00.000001185000,   1.60000,
,,,-00.000001184000,   1.52000,
,,,-00.000001183000,   1.60000,
,,,-00.000001182000,   1.60000,
,,,-00.000001181000,   1.52000,
,,,-00.000001180000,   1.52000,
,,,-00.000001179000,   1.44000,
,,,-00.000001178000,   1.44000,
,,,-00.000001177000,   1.44000,
,,,-00.000001176000,   1.36000,
,,,-00.000001175000,   1.36000,
,,,-00.000001174000,   1.36000,
,,,-00.000001173000,   1.36000,
,,,-00.000001172000,   1.28000,
,,,-00.000001171000,   1.20000,
,,,-00.000001170000,   1.20000,
,,,-00.000001169000,   1.20000,
,,,-00.000001168000,   1.20000,
,,,-00.000001167000,   1.20000,
,,,-00.000001166000,   1.12000,
,,,-00.000001165000,   1.04000,
,,,-00.000001164000,   1.04000,
,,,-00.000001163000,   0.96000,
,,,-00.000001162000,   1.04000,
,,,-00.000001161000,   0.96000,
,,,-00.000001160000,   0.88000,
,,,-00.000001159000,   0.96000,
,,,-00.000001158000,   0.80000,
,,,-00.000001157000,   0.88000,
,,,-00.000001156000,   0.80000,
,,,-00.000001155000,   0.80000,
,,,-00.000001154000,   0.72000,
,,,-00.000001153000,   0.88000,
,,,-00.000001152000,   0.64000,
,,,-00.000001151000,   0.64000,
,,,-00.000001150000,   0.56000,
,,,-00.000001149000,   0.56000,
,,,-00.000001148000,   0.48000,
,,,-00.000001147000,   0.48000,
,,,-00.000001146000,   0.48000,
,,,-00.000001145000,   0.48000,
,,,-00.000001144000,   0.32000,
,,,-00.000001143000,   0.48000,
,,,-00.000001142000,   0.40000,
,,,-00.000001141000,   0.24000,
,,,-00.000001140000,   0.32000,
,,,-00.000001139000,   0.16000,
,,,-00.000001138000,   0.16000,
,,,-00.000001137000,   0.08000,
,,,-00.000001136000,   0.08000,
,,,-00.000001135000,   0.08000,
,,,-00.000001134000,   0.00000,
,,,-00.000001133000,   0.00000,
,,,-00.000001132000,  -0.16000,
,,,-00.000001131000,  -0.08000,
,,,-00.000001130000,  -0.16000,
,,,-00.000001129000,  -0.16000,
,,,-00.000001128000,  -0.24000,
,,,-00.000001127000,  -0.32000,
,,,-00.000001126000,  -0.24000,
,,,-00.000001125000,  -0.32000,
,,,-00.000001124000,  -0.48000,
,,,-00.000001123000,  -0.48000,
,,,-00.000001122000,  -0.40000,
,,,-00.000001121000,  -0.48000,
,,,-00.000001120000,  -0.48000,
,,,-00.000001119000,  -0.48000,
,,,-00.000001118000,  -0.56000,
,,,-00.000001117000,  -0.64000,
,,,-00.000001116000,  -0.64000,
,,,-00.000001115000,  -0.72000,
,,,-00.000001114000,  -0.80000,
,,,-00.000001113000,  -0.64000,
,,,-00.000001112000,  -0.72000,
,,,-00.000001111000,  -0.88000,
,,,-00.000001110000,  -0.80000,
,,,-00.000001109000,  -0.88000,
,,,-00.000001108000,  -0.88000,
,,,-00.000001107000,  -0.96000,
,,,-00.000001106000,  -1.04000,
,,,-00.000001105000,  -1.04000,
,,,-00.000001104000,  -1.04000,
,,,-00.000001103000,  -1.04000,
,,,-00.000001102000,  -1.12000,
,,,-00.000001101000,  -1.12000,
,,,-00.000001100000,  -1.12000,
,,,-00.000001099000,  -1.20000,
,,,-00.000001098000,  -1.20000,
,,,-00.000001097000,  -1.28000,
,,,-00.000001096000,  -1.28000,
,,,-00.000001095000,  -1.28000,
,,,-00.000001094000,  -1.36000,
,,,-00.000001093000,  -1.36000,
,,,-00.000001092000,  -1.36000,
,,,-00.000001091000,  -1.36000,
,,,-00.000001090000,  -1.44000,
,,,-00.000001089000,  -1.44000,
,,,-00.000001088000,  -1.52000,
,,,-00.000001087000,  -1.52000,
,,,-00.000001086000,  -1.52000,
,,,-00.000001085000,  -1.52000,
,,,-00.000001084000,  -1.60000,
,,,-00.000001083000,  -1.60000,
,,,-00.000001082000,  -1.68000,
,,,-00.000001081000,  -1.60000,
,,,-00.000001080000,  -1.68000,
,,,-00.000001079000,  -1.68000,
,,,-00.000001078000,  -1.76000,
,,,-00.000001077000,  -1.76000,
,,,-00.000001076000,  -1.76000,
,,,-00.000001075000,  -1.68000,
,,,-00.000001074000,  -1.84000,
,,,-00.000001073000,  -1.84000,
,,,-00.000001072000,  -1.84000,
,,,-00.000001071000,  -1.84000,
,,,-00.000001070000,  -1.84000,
,,,-00.000001069000,  -1.84000,
,,,-00.000001068000,  -1.84000,
,,,-00.000001067000,  -2.00000,
,,,-00.000001066000,  -2.00000,
,,,-00.000001065000,  -1.92000,
,,,-00.000001064000,  -1.92000,
,,,-00.000001063000,  -1.92000,
,,,-00.000001062000,  -1.92000,
,,,-00.000001061000,  -1.92000,
,,,-00.000001060000,  -2.00000,
,,,-00.000001059000,  -1.92000,
,,,-00.000001058000,  -2.08000,
,,,-00.000001057000,  -2.00000,
,,,-00.000001056000,  -2.00000,
,,,-00.000001055000,  -2.00000,
,,,-00.000001054000,  -2.00000,
,,,-00.000001053000,  -1.92000,
,,,-00.000001052000,  -2.08000,
,,,-00.000001051000,  -2.16000,
,,,-00.000001050000,  -2.00000,
,,,-00.000001049000,  -2.08000,
,,,-00.000001048000,  -2.08000,
,,,-00.000001047000,  -2.08000,
,,,-00.000001046000,  -2.00000,
,,,-00.000001045000,  -2.08000,
,,,-00.000001044000,  -2.00000,
,,,-00.000001043000,  -2.00000,
,,,-00.000001042000,  -2.08000,
,,,-00.000001041000,  -2.08000,
,,,-00.000001040000,  -2.16000,
,,,-00.000001039000,  -2.08000,
,,,-00.000001038000,  -2.08000,
,,,-00.000001037000,  -2.08000,
,,,-00.000001036000,  -2.16000,
,,,-00.000001035000,  -2.08000,
,,,-00.000001034000,  -2.08000,
,,,-00.000001033000,  -2.08000,
,,,-00.000001032000,  -2.16000,
,,,-00.000001031000,  -2.08000,
,,,-00.000001030000,  -2.16000,
,,,-00.000001029000,  -2.16000,
,,,-00.000001028000,  -2.16000,
,,,-00.000001027000,  -2.16000,
,,,-00.000001026000,  -2.16000,
,,,-00.000001025000,  -2.16000,
,,,-00.000001024000,  -2.16000,
,,,-00.000001023000,  -2.16000,
,,,-00.000001022000,  -2.16000,
,,,-00.000001021000,  -2.16000,
,,,-00.000001020000,  -2.16000,
,,,-00.000001019000,  -2.16000,
,,,-00.000001018000,  -2.16000,
,,,-00.000001017000,  -2.16000,
,,,-00.000001016000,  -2.08000,
,,,-00.000001015000,  -2.16000,
,,,-00.000001014000,  -2.16000,
,,,-00.000001013000,  -2.24000,
,,,-00.000001012000,  -2.24000,
,,,-00.000001011000,  -2.16000,
,,,-00.000001010000,  -2.08000,
,,,-00.000001009000,  -2.08000,
,,,-00.000001008000,  -2.16000,
,,,-00.000001007000,  -2.08000,
,,,-00.000001006000,  -2.08000,
,,,-00.000001005000,  -2.16000,
,,,-00.000001004000,  -2.08000,
,,,-00.000001003000,  -2.08000,
,,,-00.000001002000,  -2.08000,
,,,-00.000001001000,  -2.24000,
,,,-00.000001000000,  -2.08000,
,,,-00.000000999000,  -2.08000,
,,,-00.000000998000,  -2.16000,
,,,-00.000000997000,  -2.08000,
,,,-00.000000996000,  -2.08000,
,,,-00.000000995000,  -2.08000,
,,,-00.000000994000,  -2.08000,
,,,-00.000000993000,  -2.08000,
,,,-00.000000992000,  -2.08000,
,,,-00.000000991000,  -2.08000,
,,,-00.000000990000,  -2.00000,
,,,-00.000000989000,  -2.08000,
,,,-00.000000988000,  -2.00000,
,,,-00.000000987000,  -2.00000,
,,,-00.000000986000,  -1.92000,
,,,-00.000000985000,  -2.00000,
,,,-00.000000984000,  -2.00000,
,,,-00.000000983000,  -2.00000,
,,,-00.000000982000,  -1.92000,
,,,-00.000000981000,  -1.92000,
,,,-00.000000980000,  -1.92000,
,,,-00.000000979000,  -1.92000,
,,,-00.000000978000,  -1.92000,
,,,-00.000000977000,  -1.92000,
,,,-00.000000976000,  -1.92000,
,,,-00.000000975000,  -1.76000,
,,,-00.000000974000,  -1.84000,
,,,-00.000000973000,  -1.84000,
,,,-00.000000972000,  -1.76000,
,,,-00.000000971000,  -1.84000,
,,,-00.000000970000,  -1.84000,
,,,-00.000000969000,  -1.84000,
,,,-00.000000968000,  -1.76000,
,,,-00.000000967000,  -1.68000,
,,,-00.000000966000,  -1.68000,
,,,-00.000000965000,  -1.60000,
,,,-00.000000964000,  -1.60000,
,,,-00.000000963000,  -1.60000,
,,,-00.000000962000,  -1.60000,
,,,-00.000000961000,  -1.60000,
,,,-00.000000960000,  -1.52000,
,,,-00.000000959000,  -1.60000,
,,,-00.000000958000,  -1.52000,
,,,-00.000000957000,  -1.52000,
,,,-00.000000956000,  -1.44000,
,,,-00.000000955000,  -1.36000,
,,,-00.000000954000,  -1.28000,
,,,-00.000000953000,  -1.36000,
,,,-00.000000952000,  -1.36000,
,,,-00.000000951000,  -1.36000,
,,,-00.000000950000,  -1.36000,
,,,-00.000000949000,  -1.28000,
,,,-00.000000948000,  -1.28000,
,,,-00.000000947000,  -1.04000,
,,,-00.000000946000,  -1.20000,
,,,-00.000000945000,  -1.04000,
,,,-00.000000944000,  -1.04000,
,,,-00.000000943000,  -1.12000,
,,,-00.000000942000,  -1.04000,
,,,-00.000000941000,  -1.04000,
,,,-00.000000940000,  -0.96000,
,,,-00.000000939000,  -0.96000,
,,,-00.000000938000,  -0.96000,
,,,-00.000000937000,  -0.88000,
,,,-00.000000936000,  -0.80000,
,,,-00.000000935000,  -0.80000,
,,,-00.000000934000,  -0.72000,
,,,-00.000000933000,  -0.72000,
,,,-00.000000932000,  -0.64000,
,,,-00.000000931000,  -0.64000,
,,,-00.000000930000,  -0.64000,
,,,-00.000000929000,  -0.64000,
,,,-00.000000928000,  -0.48000,
,,,-00.000000927000,  -0.48000,
,,,-00.000000926000,  -0.56000,
,,,-00.000000925000,  -0.56000,
,,,-00.000000924000,  -0.40000,
,,,-00.000000923000,  -0.32000,
,,,-00.000000922000,  -0.40000,
,,,-00.000000921000,  -0.40000,
,,,-00.000000920000,  -0.32000,
,,,-00.000000919000,  -0.32000,
,,,-00.000000918000,  -0.16000,
,,,-00.000000917000,  -0.16000,
,,,-00.000000916000,  -0.16000,
,,,-00.000000915000,  -0.08000,
,,,-00.000000914000,   0.00000,
,,,-00.000000913000,   0.00000,
,,,-00.000000912000,   0.08000,
,,,-00.000000911000,   0.00000,
,,,-00.000000910000,   0.08000,
,,,-00.000000909000,   0.16000,
,,,-00.000000908000,   0.16000,
,,,-00.000000907000,   0.24000,
,,,-00.000000906000,   0.32000,
,,,-00.000000905000,   0.24000,
,,,-00.000000904000,   0.32000,
,,,-00.000000903000,   0.48000,
,,,-00.000000902000,   0.40000,
,,,-00.000000901000,   0.40000,
,,,-00.000000900000,   0.40000,
,,,-00.000000899000,   0.48000,
,,,-00.000000898000,   0.56000,
,,,-00.000000897000,   0.48000,
,,,-00.000000896000,   0.64000,
,,,-00.000000895000,   0.56000,
,,,-00.000000894000,   0.64000,
,,,-00.000000893000,   0.64000,
,,,-00.000000892000,   0.72000,
,,,-00.000000891000,   0.72000,
,,,-00.000000890000,   0.72000,
,,,-00.000000889000,   0.80000,
,,,-00.000000888000,   0.80000,
,,,-00.000000887000,   0.80000,
,,,-00.000000886000,   0.88000,
,,,-00.000000885000,   1.04000,
,,,-00.000000884000,   0.88000,
,,,-00.000000883000,   0.96000,
,,,-00.000000882000,   1.04000,
,,,-00.000000881000,   1.04000,
,,,-00.000000880000,   1.12000,
,,,-00.000000879000,   1.12000,
,,,-00.000000878000,   1.20000,
,,,-00.000000877000,   1.12000,
,,,-00.000000876000,   1.20000,
,,,-00.000000875000,   1.20000,
,,,-00.000000874000,   1.20000,
,,,-00.000000873000,   1.28000,
,,,-00.000000872000,   1.28000,
,,,-00.000000871000,   1.36000,
,,,-00.000000870000,   1.36000,
,,,-00.000000869000,   1.36000,
,,,-00.000000868000,   1.44000,
,,,-00.000000867000,   1.52000,
,,,-00.000000866000,   1.44000,
,,,-00.000000865000,   1.52000,
,,,-00.000000864000,   1.52000,
,,,-00.000000863000,   1.52000,
,,,-00.000000862000,   1.60000,
,,,-00.000000861000,   1.68000,
,,,-00.000000860000,   1.60000,
,,,-00.000000859000,   1.60000,
,,,-00.000000858000,   1.68000,
,,,-00.000000857000,   1.68000,
,,,-00.000000856000,   1.68000,
,,,-00.000000855000,   1.68000,
,,,-00.000000854000,   1.76000,
,,,-00.000000853000,   1.68000,
,,,-00.000000852000,   1.84000,
,,,-00.000000851000,   1.76000,
,,,-00.000000850000,   1.84000,
,,,-00.000000849000,   1.84000,
,,,-00.000000848000,   1.84000,
,,,-00.000000847000,   1.84000,
,,,-00.000000846000,   2.00000,
,,,-00.000000845000,   2.00000,
,,,-00.000000844000,   1.84000,
,,,-00.000000843000,   1.92000,
,,,-00.000000842000,   1.92000,
,,,-00.000000841000,   1.92000,
,,,-00.000000840000,   2.00000,
,,,-00.000000839000,   2.00000,
,,,-00.000000838000,   2.00000,
,,,-00.000000837000,   1.92000,
,,,-00.000000836000,   1.92000,
,,,-00.000000835000,   2.00000,
,,,-00.000000834000,   2.08000,
,,,-00.000000833000,   2.00000,
,,,-00.000000832000,   2.00000,
,,,-00.000000831000,   2.00000,
,,,-00.000000830000,   2.08000,
,,,-00.000000829000,   2.00000,
,,,-00.000000828000,   2.08000,
,,,-00.000000827000,   2.00000,
,,,-00.000000826000,   2.00000,
,,,-00.000000825000,   2.08000,
,,,-00.000000824000,   2.08000,
,,,-00.000000823000,   2.08000,
,,,-00.000000822000,   2.08000,
,,,-00.000000821000,   2.08000,
,,,-00.000000820000,   2.00000,
,,,-00.000000819000,   2.16000,
,,,-00.000000818000,   2.08000,
,,,-00.000000817000,   2.16000,
,,,-00.000000816000,   2.16000,
,,,-00.000000815000,   2.08000,
,,,-00.000000814000,   2.16000,
,,,-00.000000813000,   2.16000,
,,,-00.000000812000,   2.08000,
,,,-00.000000811000,   2.16000,
,,,-00.000000810000,   2.16000,
,,,-00.000000809000,   2.16000,
,,,-00.000000808000,   2.16000,
,,,-00.000000807000,   2.24000,
,,,-00.000000806000,   2.24000,
,,,-00.000000805000,   2.24000,
,,,-00.000000804000,   2.16000,
,,,-00.000000803000,   2.24000,
,,,-00.000000802000,   2.24000,
,,,-00.000000801000,   2.24000,
,,,-00.000000800000,   2.24000,
,,,-00.000000799000,   2.24000,
,,,-00.000000798000,   2.32000,
,,,-00.000000797000,   2.24000,
,,,-00.000000796000,   2.24000,
,,,-00.000000795000,   2.32000,
,,,-00.000000794000,   2.24000,
,,,-00.000000793000,   2.32000,
,,,-00.000000792000,   2.24000,
,,,-00.000000791000,   2.24000,
,,,-00.000000790000,   2.24000,
,,,-00.000000789000,   2.24000,
,,,-00.000000788000,   2.24000,
,,,-00.000000787000,   2.24000,
,,,-00.000000786000,   2.24000,
,,,-00.000000785000,   2.24000,
,,,-00.000000784000,   2.16000,
,,,-00.000000783000,   2.16000,
,,,-00.000000782000,   2.16000,
,,,-00.000000781000,   2.16000,
,,,-00.000000780000,   2.16000,
,,,-00.000000779000,   2.16000,
,,,-00.000000778000,   2.16000,
,,,-00.000000777000,   2.16000,
,,,-00.000000776000,   2.16000,
,,,-00.000000775000,   2.16000,
,,,-00.000000774000,   2.16000,
,,,-00.000000773000,   2.16000,
,,,-00.000000772000,   2.16000,
,,,-00.000000771000,   2.16000,
,,,-00.000000770000,   2.08000,
,,,-00.000000769000,   2.08000,
,,,-00.000000768000,   2.16000,
,,,-00.000000767000,   2.08000,
,,,-00.000000766000,   2.00000,
,,,-00.000000765000,   2.00000,
,,,-00.000000764000,   2.08000,
,,,-00.000000763000,   2.08000,
,,,-00.000000762000,   2.00000,
,,,-00.000000761000,   2.00000,
,,,-00.000000760000,   2.00000,
,,,-00.000000759000,   2.08000,
,,,-00.000000758000,   2.08000,
,,,-00.000000757000,   2.00000,
,,,-00.000000756000,   1.92000,
,,,-00.000000755000,   2.00000,
,,,-00.000000754000,   2.00000,
,,,-00.000000753000,   2.00000,
,,,-00.000000752000,   1.92000,
,,,-00.000000751000,   1.92000,
,,,-00.000000750000,   2.00000,
,,,-00.000000749000,   2.00000,
,,,-00.000000748000,   1.92000,
,,,-00.000000747000,   2.00000,
,,,-00.000000746000,   2.00000,
,,,-00.000000745000,   1.92000,
,,,-00.000000744000,   1.84000,
,,,-00.000000743000,   1.84000,
,,,-00.000000742000,   1.76000,
,,,-00.000000741000,   1.76000,
,,,-00.000000740000,   1.84000,
,,,-00.000000739000,   1.84000,
,,,-00.000000738000,   1.76000,
,,,-00.000000737000,   1.76000,
,,,-00.000000736000,   1.76000,
,,,-00.000000735000,   1.68000,
,,,-00.000000734000,   1.68000,
,,,-00.000000733000,   1.60000,
,,,-00.000000732000,   1.52000,
,,,-00.000000731000,   1.52000,
,,,-00.000000730000,   1.44000,
,,,-00.000000729000,   1.52000,
,,,-00.000000728000,   1.44000,
,,,-00.000000727000,   1.44000,
,,,-00.000000726000,   1.36000,
,,,-00.000000725000,   1.44000,
,,,-00.000000724000,   1.28000,
,,,-00.000000723000,   1.36000,
,,,-00.000000722000,   1.36000,
,,,-00.000000721000,   1.28000,
,,,-00.000000720000,   1.28000,
,,,-00.000000719000,   1.28000,
,,,-00.000000718000,   1.20000,
,,,-00.000000717000,   1.20000,
,,,-00.000000716000,   1.12000,
,,,-00.000000715000,   1.04000,
,,,-00.000000714000,   1.20000,
,,,-00.000000713000,   1.04000,
,,,-00.000000712000,   0.96000,
,,,-00.000000711000,   0.96000,
,,,-00.000000710000,   0.88000,
,,,-00.000000709000,   0.88000,
,,,-00.000000708000,   0.88000,
,,,-00.000000707000,   0.80000,
,,,-00.000000706000,   0.80000,
,,,-00.000000705000,   0.80000,
,,,-00.000000704000,   0.72000,
,,,-00.000000703000,   0.72000,
,,,-00.000000702000,   0.72000,
,,,-00.000000701000,   0.64000,
,,,-00.000000700000,   0.64000,
,,,-00.000000699000,   0.48000,
,,,-00.000000698000,   0.48000,
,,,-00.000000697000,   0.48000,
,,,-00.000000696000,   0.48000,
,,,-00.000000695000,   0.48000,
,,,-00.000000694000,   0.40000,
,,,-00.000000693000,   0.32000,
,,,-00.000000692000,   0.24000,
,,,-00.000000691000,   0.16000,
,,,-00.000000690000,   0.24000,
,,,-00.000000689000,   0.24000,
,,,-00.000000688000,   0.08000,
,,,-00.000000687000,   0.08000,
,,,-00.000000686000,   0.00000,
,,,-00.000000685000,   0.00000,
,,,-00.000000684000,  -0.08000,
,,,-00.000000683000,  -0.08000,
,,,-00.000000682000,   0.00000,
,,,-00.000000681000,  -0.16000,
,,,-00.000000680000,  -0.16000,
,,,-00.000000679000,  -0.24000,
,,,-00.000000678000,  -0.16000,
,,,-00.000000677000,  -0.32000,
,,,-00.000000676000,  -0.32000,
,,,-00.000000675000,  -0.40000,
,,,-00.000000674000,  -0.40000,
,,,-00.000000673000,  -0.40000,
,,,-00.000000672000,  -0.48000,
,,,-00.000000671000,  -0.48000,
,,,-00.000000670000,  -0.48000,
,,,-00.000000669000,  -0.56000,
,,,-00.000000668000,  -0.64000,
,,,-00.000000667000,  -0.64000,
,,,-00.000000666000,  -0.56000,
,,,-00.000000665000,  -0.72000,
,,,-00.000000664000,  -0.72000,
,,,-00.000000663000,  -0.80000,
,,,-00.000000662000,  -0.88000,
,,,-00.000000661000,  -0.72000,
,,,-00.000000660000,  -0.80000,
,,,-00.000000659000,  -0.88000,
,,,-00.000000658000,  -0.80000,
,,,-00.000000657000,  -0.88000,
,,,-00.000000656000,  -0.96000,
,,,-00.000000655000,  -0.96000,
,,,-00.000000654000,  -1.04000,
,,,-00.000000653000,  -1.04000,
,,,-00.000000652000,  -1.04000,
,,,-00.000000651000,  -1.12000,
,,,-00.000000650000,  -1.04000,
,,,-00.000000649000,  -1.20000,
,,,-00.000000648000,  -1.12000,
,,,-00.000000647000,  -1.12000,
,,,-00.000000646000,  -1.28000,
,,,-00.000000645000,  -1.36000,
,,,-00.000000644000,  -1.36000,
,,,-00.000000643000,  -1.36000,
,,,-00.000000642000,  -1.36000,
,,,-00.000000641000,  -1.44000,
,,,-00.000000640000,  -1.44000,
,,,-00.000000639000,  -1.44000,
,,,-00.000000638000,  -1.52000,
,,,-00.000000637000,  -1.52000,
